{
"music_setInstrument":"set instrument to %d.instrument",
"sensing_username":"username",
"sensing_loudness":"loudness",
"sensing_setdragmode":"set drag mode %m.dragableOrNot",
"sound_setvolumeto":"set volume to %n %%",
"sensing_askandwait":"ask %s and wait",
"motion_direction":"direction",
"operator_random":"pick random %n to %n",
"motion_movesteps":"move %n steps",
"control_delete_this_clone":"delete this clone",
"music_getTempo":"tempo",
"event_whenbroadcastreceived":"when I receive %m.broadcast",
"operator_multiply":"%n * %n",
"looks_changeeffectby":"change %m.effect effect by %n",
"looks_show":"show",
"operator_mod":"%n mod %n",
"control_forever":"forever",
"sensing_dayssince2000":"days since 2000",
"pen_penDown":"pen down",
"data_showlist":"show list %m.list",
"pen_changePenHueBy":"change pen color by %n",
"data_itemnumoflist":"item # of %s in %m.var",
"procedures_definition":"define %Z",
"looks_goforwardbackwardlayers":"go back %n layers",
"looks_say":"say %s",
"data_insertatlist":"insert %d at %d of %m.var",
"looks_size":"size",
"operator_equals":"%s = %s",
"operator_join":"join %s %s",
"data_showvariable":"show variable %m.var",
"operator_lt":"%s < %s",
"looks_changesizeby":"change size by %n",
"motion_yposition":"y position",
"operator_and":"%b and %b",
"motion_pointindirection":"point in direction %d.direction",
"looks_switchbackdropto":"switch backdrop to %m.backdrop",
"control_wait":"wait %n secs",
"looks_switchcostumeto":"switch costume to %m.costume",
"control_start_as_clone":"when I start as a clone",
"sound_play":"play sound %m.sound",
"event_whenflagclicked":"when @greenFlag clicked",
"operator_round":"round %n",
"control_create_clone_of":"create clone of %m.spriteOnly",
"motion_pointtowards":"point towards %m.spriteOrMouse",
"motion_changeyby":"change y by %n",
"operator_or":"%b or %b",
"motion_glidesecstoxy":"glide %d secs to x: %d y: %d",
"looks_backdropnumbername":"backdrop #",
"data_hidevariable":"hide variable %m.var",
"motion_ifonedgebounce":"if on edge, bounce",
"control_stop":"stop %m.stop",
"sound_changeeffectby":"change %m.effect effect by %d",
"looks_cleargraphiceffects":"clear graphic effects",
"looks_seteffectto":"set %m.effect effect to %n",
"motion_goto":"go to %m.spriteOrMouse",
"motion_turnright":"turn @turnRight %n degrees",
"sensing_current":"current %m.timeAndDate",
"pen_setPenHueToNumber":"set pen color to %n",
"sensing_videoon":"video %m.videoMotionType on %m.stageOrThis",
"pen_clear":"clear",
"motion_changexby":"change x by %n",
"sensing_of":"%m.attribute of %m.sprite",
"sensing_distanceto":"distance to %m.spriteOrMouse",
"looks_think":"think %s",
"motion_xposition":"x position",
"data_itemoflist":"item %d.listItem of %m.list",
"operator_subtract":"%n - %n",
"data_listcontainsitem":"%m.list contains %s",
"sensing_mousex":"mouse x",
"looks_nextbackdrop":"next backdrop",
"looks_setsizeto":"set size to %n%%",
"looks_nextcostume":"next costume",
"looks_gotofrontback":"go to front",
"data_listcontents":"%x.list",
"motion_gotoxy":"go to x:%n y:%n",
"sensing_mousedown":"mouse down?",
"music_playNoteForBeats":"play note %d.note for %n beats",
"event_broadcastandwait":"broadcast %m.broadcast and wait",
"pen_penUp":"pen up",
"operator_mathop":"%m.mathOp of %n",
"looks_hide":"hide",
"looks_sayforsecs":"say %s for %n secs",
"event_whenbackdropswitchesto":"when backdrop switches to %m.backdrop",
"data_setvariableto":"set %m.var to %s",
"motion_setx":"set x to %n",
"sensing_keypressed":"key %m.key pressed?",
"pen_setPenShadeToNumber":"set pen shade to %n",
"sensing_coloristouchingcolor":"color %c is touching %c?",
"sound_cleareffects":"clear graphic effects",
"data_variable":"%x.var",
"argument_reporter_string_number":"%x",
"data_hidelist":"hide list %m.list",
"operator_not":"not %b",
"sensing_videotoggle":"turn video %m.videoState",
"event_whenkeypressed":"when %m.key key pressed",
"event_whengreaterthan":"when %m.triggerSensor > %n",
"data_deleteoflist":"delete %d.listDeleteItem of %m.list",
"sound_stopallsounds":"stop all sounds",
"data_lengthoflist":"length of %m.list",
"looks_thinkforsecs":"think %s for %n secs",
"pen_changePenShadeBy":"change pen shade by %n",
"control_repeat_until":"repeat until %b",
"sensing_setvideotransparency":"set video transparency to %n%%",
"pen_changePenSizeBy":"change pen size by %n",
"control_if":"if %b then",
"sound_playuntildone":"play sound %m.sound until done",
"control_if_else":"if %b then",
"sensing_answer":"answer",
"operator_letter_of":"letter %n of %s",
"data_addtolist":"add %s to %m.list",
"sensing_mousey":"mouse y",
"motion_sety":"set y to %n",
"sensing_resettimer":"reset timer",
"operator_add":"%n + %n",
"sound_seteffectto":"set %m.effect effect to %n",
"motion_setrotationstyle":"set rotation style %m.rotationStyle",
"music_playDrumForBeats":"play drum %d.drum for %n beats",
"music_restForBeats":"rest for %n beats",
"data_changevariableby":"change %m.var by %n",
"sensing_touchingobject":"touching %m.touching?",
"event_whenthisspriteclicked":"when this sprite clicked",
"control_repeat":"repeat %n",
"operator_contains":"%m.list contains %s",
"music_setTempo":"set tempo to %n bpm",
"looks_costumenumbername":"costume #",
"looks_switchbackdroptoandwait":"switch backdrop to %m.backdrop and wait",
"procedures_call":"%Z",
"operator_length":"length of %s",
"pen_stamp":"stamp",
"control_wait_until":"wait until %b",
"pen_setPenSizeTo":"set pen size to %n",
"sound_changevolumeby":"change volume by %n",
"motion_turnleft":"turn @turnLeft %n degrees",
"motion_glideto":"glide %n secs to %m.glideTarget",
"sound_volume":"volume",
"event_broadcast":"broadcast %m.broadcast",
"sensing_timer":"timer",
"operator_divide":"%n / %n",
"operator_gt":"%s > %s",
"music_changeTempo":"change tempo by %n",
"pen_setPenColorToColor":"set pen color to %c",
"sensing_touchingcolor":"touching color %c?",
"data_replaceitemoflist":"replace item %d.listItem of %m.list with %s"
}
